ask-stack@2.2.0
atom-beautify@0.29.7
atom-csscomb@1.9.5
awesome-tool-bar@0.4.3
chaps-angular-snippets@0.2.4
codeigniter@0.3.0
editorconfig@1.4.1
emmet@2.4.3
font-awesome-snippetset@0.0.6
git-control@0.7.1
git-time-machine@1.5.3
jshint@1.8.5
language-haml@0.24.0
line-count@0.5.0
linter@1.11.4
linter-haml@1.2.0
merge-conflicts@1.4.2
minimap@4.23.2
pigments@0.26.0
recent-finder@0.4.4
term3@0.22.0
text-pastry@0.6.1
tool-bar@0.4.0
tree-view-copy-relative-path@1.0.0